Concepts: Data Type, Strucuture and Manipulation
…
- `group_by` adds _structure_ to your `data.frame` that impacts how data is manipulated, when done with your groupings dont forget to `ungroup()`

```r
flows %>% 
 select(Date, Flow) %>% 
 mutate(Year  = format(Date, "%Y")) %>%
 group_by(Year) %>%
 summarize(meanQ = mean(Flow),
           maxQ = max(Flow)) %>%
 ungroup()
```

```
# A tibble: 50 × 3
   Year  meanQ  maxQ
   <chr> <dbl> <dbl>
 1 1973  4669. 13200
 2 1974  3659. 14400
 3 1975  3611. 14100
 4 1976  2340. 15000
 5 1977  2860. 16200
 6 1978  2206. 11300
 7 1979  2378. 12000
 8 1980  2548. 14700
 9 1981  2976. 17000
10 1982  3424. 15100
# … with 40 more rows
```
…
