Session 1: Vector Data
…
##Intersecting Populations
.panel1-q12-auto[

```r
filter(misscount) |>
  st_drop_geometry() |>
* group_by(state_name)
```
]
 
.panel2-q12-auto[

```
# A tibble: 112 × 15
# Groups:   state_name [10]
   state_region state_division feature_code state_name state_abbr name       
          <int>          <int> <chr>        <chr>      <chr>      <chr>      
 1            3              7 0069160      Arkansas   AR         Chicot     
 2            3              7 0069162      Arkansas   AR         Crittenden 
 3            3              7 0066850      Arkansas   AR         Desha      
 4            3              7 0066866      Arkansas   AR         Lee        
 5            3              7 0069899      Arkansas   AR         Mississippi
 6            3              7 0069172      Arkansas   AR         Phillips   
 7            2              3 0424202      Illinois   IL         Adams      
 8            2              3 0424203      Illinois   IL         Alexander  
 9            2              3 0424208      Illinois   IL         Calhoun    
10            2              3 0424209      Illinois   IL         Carroll    
# … with 102 more rows, and 9 more variables: fip_class <fct>,
#   tiger_class <fct>, combined_area_code <int>, metropolitan_area_code <chr>,
#   functional_status <fct>, land_area <dbl>, water_area <dbl>, fip_code <chr>,
#   POPESTIMATE2021 <int>
```
…
